<?xml version="1.0" encoding="UTF-8" standalone="no"?>
<svg width="24px" height="24px" viewBox="0 0 24 24" version="1.1" xmlns="http://www.w3.org/2000/svg" xmlns:xlink="http://www.w3.org/1999/xlink">
    <!-- Generator: Sketch 45.1 (43504) - http://www.bohemiancoding.com/sketch -->
    <title>icons/vid-forward</title>
    <desc>Created with Sketch.</desc>
    <defs></defs>
    <g id="Global" stroke="none" stroke-width="1" fill="none" fill-rule="evenodd">
        <g id="icons/vid-forward" fill="#42526E">
            <path d="M3.76838791,4.18880529 C3.34401898,3.83288037 3,3.99642138 3,4.55099847 L3,19.4392263 C3,19.995185 3.34767864,20.1751379 3.78542233,19.8342627 L12.6642303,12.9202507 C13.0980071,12.5824646 13.101974,12.0170313 12.6812647,11.6641758 L3.76838791,4.18880529 Z" id="Page-1"></path>
            <path d="M11.7683879,4.18880529 C11.344019,3.83288037 11,3.99642138 11,4.55099847 L11,19.4392263 C11,19.995185 11.3476786,20.1751379 11.7854223,19.8342627 L20.6642303,12.9202507 C21.0980071,12.5824646 21.101974,12.0170313 20.6812647,11.6641758 L11.7683879,4.18880529 Z" id="Page-1-Copy"></path>
        </g>
    </g>
</svg>