{
  "version": 1,
  "type": "doc",
  "content": [
    {
      "type": "table",
      "content": [
        {
          "type": "tableRow",
          "content": [
            {
              "type": "tableCell",
              "content": [
                {
                  "type": "paragraph",
                  "content": []
                }
              ]
            }
          ]
        }
      ]
    }
  ]
}
